{
"type": "service_account",
"project_id": "formation-g1",
"private_key_id": "6a9258b28ba8251a09aabb94c1eb043d46b41fcc",
"private_key": "-----BEGIN PRIVATE KEY-----\nMIIEvAIBADANBgkqhkiG9w0BAQEFAASCBKYwggSiAgEAAoIBAQDqcFpFzORM1zTC\n+Z+XCgjDgJ5dGU9pCh3rkAfgFTdsLGlWD45PVSfblgP8W1jm0zK2EeCFSqWGngq/\n4+/VRwC//gYPCzSwWg0A8EuzYu8fCaM3UOsGXS++Okmns78l9UlD3vtZeRUK661c\n8MDkcPk8EkxlVPMlB1q+FPe6keZbz0pjoPFocdmyc04rsfxKDY+9cdZZXPSeJRwT\nlLXTxcYv8ns2C+URNcu7XUXN8fvOvMm7ONwKprXny5iUZRlyH8cyKUdZnw0yJ7fk\nij7MRrTyxlzc9RxGOb2cFJZN99YLLutUyIyoCgoTsTU8aEEqoyWAelHCh0Ks0mAj\nAHbW03mFAgMBAAECggEALsnzHlSs6NAXqeUnjn20b45TLOoBAQoBnDKv+69IUyjO\n8hvjL16juI3JaFtz1AepKpDJUljqTcJri04q3tJPqkHAxE5ceujSCRKsTRZM+pES\nF9dovKmq/miELDnxx5nbgDX3zKzfgAE25aJwIPeSKoTNZfjtGQINgHvPUFdPlhlY\nYCiKYb/ahU1PcNvoWaTvhFWdGQSlROPiiIJMph/dw8vL4gyJRYRT6sUiveJfLKLB\nDKFWYhacQpJh8hBInbfBwkgSDj4zRvbDjun/4IYUJHIZP46FyDTY14be06m598bF\ntcMQP5Bkx1OhFMT6B5DGTGBJezUf2fRb7U4/ESZCcQKBgQD78r6SAhTJuCqU4ouj\nZTAOkZOSBw418bVACXeT71lX6Z/VaclkfJz6aseBPkkiSxUK3Qq9eop1JQsgNs4k\ns2SYzZReuK+KX3SKcz+RThZlnRuPR6iJk3O2yg+MwWlj/I26uzkoXtwVdD6U/FCx\n37h8tzbblQ84vmUMMF1kyioU0QKBgQDuNYX3aCjZIhoqnE9woRS7+cuEm913ARV4\ntmRVRpo945Hlj/gVFDI7JRWulMaGYYwRGljxdIxCEYq/uh4q1nmL0fqpvyeu1nn/\nLNixbS5pvLNWcGUu8uZC3FcCOnbqydfcOmeCGgb3QYH48GXLPdihjSGLtQnxnH5Z\nKlxUQm4WdQKBgFy09qCdOW78YFbGgaFPE37Y3FcoV3dMCGiW0zRRJyvtIE4UDfH2\n1IBkmCKbe6etvwFvUotkMtxmFBD3eaURiZucUdME3DrrYuOrAqIB/MXJKKHxOTfe\nVP7WnSAq7w/Gl5Q1XhPXy93tFzYVHdBFxQnHFN15nM9BZ8czaLo0lYVxAoGAXtg0\nxPNWAE5RuNGP17prNQUagWxF25I06GFGxaVc2HN5rbuK/WmTLnVvkpluCidgy5Z/\n/3N2PQAbDIegZ1IKBx/N/DQ+KqD+5hkHFm3wYu1dQndx8iWIhOqSQjLhEk7XgbpH\naEfQqjYM9/9PqIKxdHFq/+NPWEIFFJ+HL41bo9kCgYApC8K2TPLyWjB3lzTTUYY0\nWjN9oDf9C8cCsYl3VL6rqx7ubbcAhcY8FRMRcaU1650ayXv3MJ0zNI40VR/jKY3t\nu4hFpuY8xJUW0m++UhQnVou69fjRjPYSrHDuWJkSwMPj48oowyE5VjI8NwI9U1uZ\nq8Max4kuhNw91aJM5KxQ3A==\n-----END PRIVATE KEY-----\n",
"client_email": "compte-service-mohamed@formation-g1.iam.gserviceaccount.com",
"client_id": "111410343935495006965",
"auth_uri": "https://accounts.google.com/o/oauth2/auth",
"token_uri": "https://oauth2.googleapis.com/token",
"auth_provider_x509_cert_url": "https://www.googleapis.com/oauth2/v1/certs",
"client_x509_cert_url": "https://www.googleapis.com/robot/v1/metadata/x509/compte-service-mohamed%40formation-g1.iam.gserviceaccount.com"
}
